AtoDConv/Debug/logVcd.vcd
$date
     Oct 02, 2015       18:59:21
$end

$version
 SystemC 2.3.1-Accellera --- Jun 22 2015 14:07:54
$end

$timescale
     1 ns
$end

$scope module SystemC $end
$var wire    1  aaaaa  adcClk       $end
$var wire   10  aaaab  sin_BV [9:0]  $end
$var wire   10  aaaac  cos_BV [9:0]  $end
$var wire   10  aaaad  saw_BV [9:0]  $end
$upscope $end
$enddefinitions  $end

$comment
All initial values are dumped below at time 0 sec = 0 timescale units.
$end

$dumpvars
1aaaaa
b100000000 aaaab
b111111111 aaaac
b100000000 aaaad
$end

#20
b100000001 aaaab
b100000001 aaaad

#40
b100000010 aaaab

#50
b100000010 aaaad

#70
b100000011 aaaab

#90
b100000100 aaaab
b100000011 aaaad

#120
b100000101 aaaab
b100000100 aaaad

#150
b100000110 aaaab
b100000101 aaaad

#170
b100000111 aaaab

#190
b100000110 aaaad

#200
b100001000 aaaab

#220
b100001001 aaaab
b100000111 aaaad

#250
b100001010 aaaab
b100001000 aaaad

#270
b100001011 aaaab

#290
b100001001 aaaad

#300
b100001100 aaaab

#320
b100001010 aaaad

#330
b100001101 aaaab

#350
b100001110 aaaab
b100001011 aaaad

#380
b100001111 aaaab

#390
b100001100 aaaad

#400
b100010000 aaaab

#420
b100001101 aaaad

#430
b100010001 aaaab

#450
b100010010 aaaab
b100001110 aaaad

#480
b100010011 aaaab
b100001111 aaaad

#500
0aaaaa

#510
b100010100 aaaab

#520
b100010000 aaaad

#530
b100010101 aaaab

#550
b100010001 aaaad

#560
b100010110 aaaab

#580
b100010111 aaaab
b100010010 aaaad

#610
b100011000 aaaab

#620
b100010011 aaaad

#630
b100011001 aaaab

#650
b100010100 aaaad

#660
b100011010 aaaab

#680
b100011011 aaaab
b100010101 aaaad

#710
b100011100 aaaab

#720
b100010110 aaaad

#740
b100011101 aaaab

#750
b100010111 aaaad

#760
b100011110 aaaab

#780
b100011000 aaaad

#790
b100011111 aaaab

#810
b100100000 aaaab
b100011001 aaaad

#840
b100100001 aaaab

#850
b100011010 aaaad

#860
b100100010 aaaab

#880
b100011011 aaaad

#890
b100100011 aaaab

#910
b100011100 aaaad

#920
b100100100 aaaab

#940
b100100101 aaaab

#950
b100011101 aaaad

#970
b100100110 aaaab

#980
b100011110 aaaad

#990
b100100111 aaaab

#1000
1aaaaa

#1010
b100011111 aaaad

#1020
b100101000 aaaab

#1040
b100101001 aaaab

#1050
b100100000 aaaad

#1070
b100101010 aaaab

#1080
b100100001 aaaad

#1100
b100101011 aaaab

#1110
b100100010 aaaad

#1120
b100101100 aaaab

#1150
b100101101 aaaab
b100100011 aaaad

#1170
b100101110 aaaab

#1180
b100100100 aaaad

#1200
b100101111 aaaab

#1210
b100100101 aaaad

#1220
b100110000 aaaab

#1240
b100100110 aaaad

#1250
b100110001 aaaab

#1280
b100110010 aaaab
b100100111 aaaad

#1300
b100110011 aaaab

#1310
b100101000 aaaad

#1330
b100110100 aaaab

#1340
b100101001 aaaad

#1350
b100110101 aaaab

#1380
b100110110 aaaab
b100101010 aaaad

#1400
b100110111 aaaab

#1410
b100101011 aaaad

#1430
b100111000 aaaab

#1440
b100101100 aaaad

#1460
b100111001 aaaab

#1480
b100111010 aaaab
b100101101 aaaad

#1500
0aaaaa

#1510
b100111011 aaaab
b100101110 aaaad

#1530
b100111100 aaaab

#1540
b100101111 aaaad

#1560
b100111101 aaaab

#1580
b100111110 aaaab
b100110000 aaaad

#1610
b100111111 aaaab
b100110001 aaaad

#1640
b101000000 aaaab
b100110010 aaaad

#1660
b101000001 aaaab

#1670
b100110011 aaaad

#1690
b101000010 aaaab

#1710
b101000011 aaaab
b100110100 aaaad

#1740
b101000100 aaaab
b100110101 aaaad

#1770
b101000101 aaaab
b100110110 aaaad

#1790
b101000110 aaaab

#1810
b100110111 aaaad

#1820
b101000111 aaaab

#1840
b101001000 aaaab
b100111000 aaaad

#1870
b101001001 aaaab
b100111001 aaaad

#1890
b101001010 aaaab

#1910
b100111010 aaaad

#1920
b101001011 aaaab

#1940
b100111011 aaaad

#1950
b101001100 aaaab

#1970
b101001101 aaaab
b100111100 aaaad

#2000
1aaaaa
b101001110 aaaab
b100111101 aaaad

#2020
b101001111 aaaab

#2040
b100111110 aaaad

#2050
b101010000 aaaab

#2070
b100111111 aaaad

#2080
b101010001 aaaab

#2100
b101010010 aaaab
b101000000 aaaad

#2130
b101010011 aaaab

#2140
b101000001 aaaad

#2150
b101010100 aaaab

#2170
b101000010 aaaad

#2180
b101010101 aaaab

#2200
b101010110 aaaab
b101000011 aaaad

#2230
b101010111 aaaab

#2240
b101000100 aaaad

#2260
b101011000 aaaab

#2270
b101000101 aaaad

#2280
b101011001 aaaab

#2300
b101000110 aaaad

#2310
b101011010 aaaab

#2330
b101011011 aaaab

#2340
b101000111 aaaad

#2360
b101011100 aaaab

#2370
b101001000 aaaad

#2390
b101011101 aaaab

#2400
b101001001 aaaad

#2410
b101011110 aaaab

#2430
b101001010 aaaad

#2440
b101011111 aaaab

#2460
b101100000 aaaab

#2470
b101001011 aaaad

#2490
b101100001 aaaab

#2500
0aaaaa
b101001100 aaaad

#2520
b101100010 aaaab

#2530
b101001101 aaaad

#2540
b101100011 aaaab

#2570
b101100100 aaaab
b101001110 aaaad

#2590
b101100101 aaaab

#2600
b101001111 aaaad

#2620
b101100110 aaaab

#2630
b101010000 aaaad

#2650
b101100111 aaaab

#2670
b101101000 aaaab
b101010001 aaaad

#2700
b101101001 aaaab
b101010010 aaaad

#2720
b101101010 aaaab

#2730
b101010011 aaaad

#2750
b101101011 aaaab

#2760
b101010100 aaaad

#2780
b101101100 aaaab

#2800
b101101101 aaaab
b101010101 aaaad

#2830
b101101110 aaaab
b101010110 aaaad

#2850
b101101111 aaaab

#2860
b101010111 aaaad

#2880
b101110000 aaaab

#2900
b101011000 aaaad

#2910
b101110001 aaaab

#2930
b101110010 aaaab
b101011001 aaaad

#2960
b101110011 aaaab
b101011010 aaaad

#2980
b101110100 aaaab

#3000
1aaaaa
b101011011 aaaad

#3010
b101110101 aaaab

#3030
b101011100 aaaad

#3040
b101110110 aaaab

#3060
b101110111 aaaab
b101011101 aaaad

#3090
b101111000 aaaab

#3100
b101011110 aaaad

#3110
b101111001 aaaab

#3130
b101011111 aaaad

#3140
b101111010 aaaab

#3160
b101100000 aaaad

#3170
b101111011 aaaab

#3190
b101111100 aaaab
b101100001 aaaad

#3220
b101111101 aaaab

#3230
b101100010 aaaad

#3250
b101111110 aaaab

#3260
b101100011 aaaad

#3270
b101111111 aaaab

#3290
b101100100 aaaad

#3300
b110000000 aaaab

#3320
b110000001 aaaab

#3330
b101100101 aaaad

#3350
b110000010 aaaab

#3360
b101100110 aaaad

#3380
b110000011 aaaab

#3390
b101100111 aaaad

#3400
b110000100 aaaab

#3430
b110000101 aaaab
b101101000 aaaad

#3460
b110000110 aaaab
b101101001 aaaad

#3480
b110000111 aaaab

#3490
b101101010 aaaad

#3500
0aaaaa

#3510
b110001000 aaaab

#3530
b110001001 aaaab
b101101011 aaaad

#3560
b110001010 aaaab
b101101100 aaaad

#3590
b110001011 aaaab
b101101101 aaaad

#3610
b110001100 aaaab

#3620
b101101110 aaaad

#3640
b110001101 aaaab

#3660
b101101111 aaaad

#3670
b110001110 aaaab

#3690
b110001111 aaaab
b101110000 aaaad

#3720
b110010000 aaaab
b101110001 aaaad

#3750
b110010001 aaaab

#3760
b101110010 aaaad

#3770
b110010010 aaaab

#3790
b101110011 aaaad

#3800
b110010011 aaaab

#3820
b110010100 aaaab
b101110100 aaaad

#3850
b110010101 aaaab

#3860
b101110101 aaaad

#3880
b110010110 aaaab

#3890
b101110110 aaaad

#3900
b110010111 aaaab

#3920
b101110111 aaaad

#3930
b110011000 aaaab

#3950
b101111000 aaaad

#3960
b110011001 aaaab

#3980
b110011010 aaaab

#3990
b101111001 aaaad

#4000
1aaaaa

#4010
b110011011 aaaab

#4020
b101111010 aaaad

#4040
b110011100 aaaab

#4050
b101111011 aaaad

#4060
b110011101 aaaab

#4090
b110011110 aaaab
b101111100 aaaad

#4120
b110011111 aaaab
b101111101 aaaad

#4140
b110100000 aaaab

#4150
b101111110 aaaad

#4170
b110100001 aaaab

#4190
b110100010 aaaab
b101111111 aaaad

#4220
b110100011 aaaab
b110000000 aaaad

#4250
b110100100 aaaab
b110000001 aaaad

#4270
b110100101 aaaab

#4290
b110000010 aaaad

#4300
b110100110 aaaab

#4320
b110000011 aaaad

#4330
b110100111 aaaab

#4350
b110101000 aaaab
b110000100 aaaad

#4380
b110101001 aaaab
b110000101 aaaad

#4410
b110101010 aaaab

#4420
b110000110 aaaad

#4430
b110101011 aaaab

#4450
b110000111 aaaad

#4460
b110101100 aaaab

#4480
b110001000 aaaad

#4490
b110101101 aaaab

#4500
0aaaaa

#4510
b110101110 aaaab

#4520
b110001001 aaaad

#4540
b110101111 aaaab

#4550
b110001010 aaaad

#4570
b110110000 aaaab

#4580
b110001011 aaaad

#4590
b110110001 aaaab

#4620
b110110010 aaaab
b110001100 aaaad

#4650
b110110011 aaaab
b110001101 aaaad

#4680
b110110100 aaaab
b110001110 aaaad

#4700
b110110101 aaaab

#4720
b110001111 aaaad

#4730
b110110110 aaaab

#4750
b110010000 aaaad

#4760
b110110111 aaaab

#4780
b110111000 aaaab
b110010001 aaaad

#4810
b110111001 aaaab
b110010010 aaaad

#4840
b110111010 aaaab

#4850
b110010011 aaaad

#4860
b110111011 aaaab

#4880
b110010100 aaaad

#4890
b110111100 aaaab

#4910
b110010101 aaaad

#4920
b110111101 aaaab

#4940
b110111110 aaaab

#4950
b110010110 aaaad

#4970
b110111111 aaaab

#4980
b110010111 aaaad

#5000
1aaaaa
b111000000 aaaab

#5010
b110011000 aaaad

#5020
b111000001 aaaab

#5050
b111000010 aaaab
b110011001 aaaad

#5080
b111000011 aaaab
b110011010 aaaad

#5110
b111000100 aaaab
b110011011 aaaad

#5130
b111000101 aaaab

#5140
b110011100 aaaad

#5160
b111000110 aaaab

#5180
b110011101 aaaad

#5190
b111000111 aaaab

#5210
b111001000 aaaab
b110011110 aaaad

#5240
b111001001 aaaab
b110011111 aaaad

#5270
b111001010 aaaab

#5280
b110100000 aaaad

#5290
b111001011 aaaab

#5310
b110100001 aaaad

#5320
b111001100 aaaab

#5340
b110100010 aaaad

#5350
b111001101 aaaab

#5380
b111001110 aaaab
b110100011 aaaad

#5400
b111001111 aaaab

#5410
b110100100 aaaad

#5430
b111010000 aaaab

#5440
b110100101 aaaad

#5460
b111010001 aaaab

#5480
b110100110 aaaad

#5490
b111010010 aaaab

#5500
0aaaaa

#5510
b111010011 aaaab
b110100111 aaaad

#5540
b111010100 aaaab
b110101000 aaaad

#5570
b111010101 aaaab
b110101001 aaaad

#5590
b111010110 aaaab

#5610
b110101010 aaaad

#5620
b111010111 aaaab

#5640
b110101011 aaaad

#5650
b111011000 aaaab

#5670
b110101100 aaaad

#5680
b111011001 aaaab

#5700
b111011010 aaaab

#5710
b110101101 aaaad

#5730
b111011011 aaaab

#5740
b110101110 aaaad

#5760
b111011100 aaaab

#5770
b110101111 aaaad

#5790
b111011101 aaaab

#5810
b111011110 aaaab
b110110000 aaaad

#5840
b111011111 aaaab
b110110001 aaaad

#5870
b111100000 aaaab
b110110010 aaaad

#5900
b111100001 aaaab
b110110011 aaaad

#5920
b111100010 aaaab

#5940
b110110100 aaaad

#5950
b111100011 aaaab

#5970
b110110101 aaaad

#5980
b111100100 aaaab

#6000
1aaaaa
b110110110 aaaad

#6010
b111100101 aaaab

#6030
b111100110 aaaab

#6040
b110110111 aaaad

#6060
b111100111 aaaab

#6070
b110111000 aaaad

#6090
b111101000 aaaab

#6100
b110111001 aaaad

#6120
b111101001 aaaab

#6140
b111101010 aaaab
b110111010 aaaad

#6170
b111101011 aaaab
b110111011 aaaad

#6200
b111101100 aaaab
b110111100 aaaad

#6230
b111101101 aaaab

#6240
b110111101 aaaad

#6260
b111101110 aaaab

#6270
b110111110 aaaad

#6280
b111101111 aaaab

#6300
b110111111 aaaad

#6310
b111110000 aaaab

#6330
b111000000 aaaad

#6340
b111110001 aaaab

#6370
b111110010 aaaab
b111000001 aaaad

#6390
b111110011 aaaab

#6400
b111000010 aaaad

#6420
b111110100 aaaab

#6430
b111000011 aaaad

#6450
b111110101 aaaab

#6470
b111000100 aaaad

#6480
b111110110 aaaab

#6500
0aaaaa
b111000101 aaaad

#6510
b111110111 aaaab

#6530
b111111000 aaaab
b111000110 aaaad

#6560
b111111001 aaaab

#6570
b111111101 aaaac
b111000111 aaaad

#6580
b111111100 aaaac

#6590
b111111010 aaaab
b111111010 aaaac

#6600
b111111001 aaaac
b111001000 aaaad

#6610
b111111000 aaaac

#6620
b111111011 aaaab
b111110110 aaaac

#6630
b111110101 aaaac
b111001001 aaaad

#6640
b111110011 aaaac

#6650
b111111100 aaaab
b111110010 aaaac

#6660
b111110001 aaaac

#6670
b111111101 aaaab
b111101111 aaaac
b111001010 aaaad

#6680
b111101110 aaaac

#6690
b111101100 aaaac

#6700
b111111110 aaaab
b111101011 aaaac
b111001011 aaaad

#6710
b111101010 aaaac

#6720
b111101000 aaaac

#6730
b111111111 aaaab
b111100111 aaaac
b111001100 aaaad

#6740
b111100110 aaaac

#6750
b111100100 aaaac

#6760
b111100011 aaaac
b111001101 aaaad

#6770
b111100001 aaaac

#6780
b111100000 aaaac

#6790
b111011111 aaaac

#6800
b111011101 aaaac
b111001110 aaaad

#6810
b111011100 aaaac

#6820
b111011010 aaaac

#6830
b111011001 aaaac
b111001111 aaaad

#6840
b111010111 aaaac

#6850
b111010110 aaaac

#6860
b111010101 aaaac
b111010000 aaaad

#6870
b111010011 aaaac

#6880
b111010010 aaaac

#6890
b111010000 aaaac

#6900
b111001111 aaaac
b111010001 aaaad

#6910
b111001110 aaaac

#6920
b111001100 aaaac

#6930
b111001011 aaaac
b111010010 aaaad

#6940
b111001001 aaaac

#6950
b111001000 aaaac

#6960
b111000111 aaaac
b111010011 aaaad

#6970
b111000101 aaaac

#6980
b111000100 aaaac

#6990
b111000010 aaaac

#7000
1aaaaa
b111000001 aaaac
b111010100 aaaad

#7010
b111000000 aaaac

#7020
b110111110 aaaac

#7030
b110111101 aaaac
b111010101 aaaad

#7040
b110111011 aaaac

#7050
b110111010 aaaac

#7060
b110111000 aaaac
b111010110 aaaad

#7070
b110110111 aaaac

#7080
b110110110 aaaac

#7090
b110110100 aaaac
b111010111 aaaad

#7100
b110110011 aaaac

#7110
b110110001 aaaac

#7120
b110110000 aaaac

#7130
b110101110 aaaac
b111011000 aaaad

#7140
b110101101 aaaac

#7150
b110101100 aaaac

#7160
b110101010 aaaac
b111011001 aaaad

#7170
b110101001 aaaac

#7180
b110100111 aaaac

#7190
b110100110 aaaac
b111011010 aaaad

#7200
b110100100 aaaac

#7210
b110100011 aaaac

#7220
b110100010 aaaac

#7230
b110100000 aaaac
b111011011 aaaad

#7240
b110011111 aaaac

#7250
b110011101 aaaac

#7260
b110011100 aaaac
b111011100 aaaad

#7270
b110011010 aaaac

#7280
b110011001 aaaac

#7290
b110011000 aaaac
b111011101 aaaad

#7300
b110010110 aaaac

#7310
b110010101 aaaac

#7320
b110010011 aaaac

#7330
b110010010 aaaac
b111011110 aaaad

#7340
b110010000 aaaac

#7350
b110001111 aaaac

#7360
b110001110 aaaac
b111011111 aaaad

#7370
b110001100 aaaac

#7380
b110001011 aaaac

#7390
b110001001 aaaac
b111100000 aaaad

#7400
b110001000 aaaac

#7410
b110000110 aaaac

#7420
b110000101 aaaac

#7430
b110000011 aaaac
b111100001 aaaad

#7440
b110000010 aaaac

#7450
b110000001 aaaac

#7460
b101111111 aaaac
b111100010 aaaad

#7470
b101111110 aaaac

#7480
b101111100 aaaac

#7490
b101111011 aaaac
b111100011 aaaad

#7500
0aaaaa
b101111001 aaaac

#7510
b101111000 aaaac

#7520
b101110110 aaaac
b111100100 aaaad

#7530
b101110101 aaaac

#7540
b101110100 aaaac

#7550
b101110010 aaaac

#7560
b101110001 aaaac
b111100101 aaaad

#7570
b101101111 aaaac

#7580
b101101110 aaaac

#7590
b101101100 aaaac
b111100110 aaaad

#7600
b101101011 aaaac

#7610
b101101001 aaaac

#7620
b101101000 aaaac
b111100111 aaaad

#7630
b101100111 aaaac

#7640
b101100101 aaaac

#7650
b101100100 aaaac

#7660
b101100010 aaaac
b111101000 aaaad

#7670
b101100001 aaaac

#7680
b101011111 aaaac

#7690
b101011110 aaaac
b111101001 aaaad

#7700
b101011100 aaaac

#7710
b101011011 aaaac

#7720
b101011001 aaaac
b111101010 aaaad

#7730
b101011000 aaaac

#7740
b101010111 aaaac

#7750
b101010101 aaaac

#7760
b101010100 aaaac
b111101011 aaaad

#7770
b101010010 aaaac

#7780
b101010001 aaaac

#7790
b101001111 aaaac
b111101100 aaaad

#7800
b101001110 aaaac

#7810
b101001100 aaaac

#7820
b101001011 aaaac
b111101101 aaaad

#7830
b101001001 aaaac

#7840
b101001000 aaaac

#7850
b101000111 aaaac

#7860
b101000101 aaaac
b111101110 aaaad

#7870
b101000100 aaaac

#7880
b101000010 aaaac

#7890
b101000001 aaaac
b111101111 aaaad

#7900
b100111111 aaaac

#7910
b100111110 aaaac

#7920
b100111100 aaaac
b111110000 aaaad

#7930
b100111011 aaaac

#7940
b100111001 aaaac

#7950
b100111000 aaaac
b111110001 aaaad

#7960
b100110111 aaaac

#7970
b100110101 aaaac

#7980
b100110100 aaaac

#7990
b100110010 aaaac
b111110010 aaaad

#8000
1aaaaa
b100110001 aaaac

#8010
b100101111 aaaac

#8020
b100101110 aaaac
b111110011 aaaad

#8030
b100101100 aaaac

#8040
b100101011 aaaac

#8050
b100101001 aaaac
b111110100 aaaad

#8060
b100101000 aaaac

#8070
b100100110 aaaac

#8080
b100100101 aaaac

#8090
b100100100 aaaac
b111110101 aaaad

#8100
b100100010 aaaac

#8110
b100100001 aaaac

#8120
b100011111 aaaac
b111110110 aaaad

#8130
b100011110 aaaac

#8140
b100011100 aaaac

#8150
b100011011 aaaac
b111110111 aaaad

#8160
b100011001 aaaac

#8170
b100011000 aaaac

#8180
b100010110 aaaac

#8190
b100010101 aaaac
b111111000 aaaad

#8200
b100010011 aaaac

#8210
b100010010 aaaac

#8220
b100010001 aaaac
b111111001 aaaad

#8230
b100001111 aaaac

#8240
b100001110 aaaac

#8250
b100001100 aaaac
b111111010 aaaad

#8260
b100001011 aaaac

#8270
b100001001 aaaac

#8280
b100001000 aaaac
b111111011 aaaad

#8290
b100000110 aaaac

#8300
b100000101 aaaac

#8310
b100000011 aaaac

#8320
b100000010 aaaac
b111111100 aaaad

#8330
b100000000 aaaac

#8340
b11111111 aaaac

#8350
b11111110 aaaac
b111111101 aaaad

#8360
b11111100 aaaac

#8370
b11111011 aaaac

#8380
b11111001 aaaac
b111111110 aaaad

#8390
b11111000 aaaac

#8400
b11110110 aaaac

#8410
b11110101 aaaac

#8420
b11110011 aaaac
b111111111 aaaad

#8430
b11110010 aaaac

#8440
b11110000 aaaac

#8450
b11101111 aaaac

#8460
b11101101 aaaac

#8470
b11101100 aaaac

#8480
b11101011 aaaac

#8490
b11101001 aaaac

#8500
0aaaaa
b11101000 aaaac

#8510
b11100110 aaaac

#8520
b11100101 aaaac

#8530
b11100011 aaaac

#8540
b11100010 aaaac

#8550
b11100000 aaaac

#8560
b11011111 aaaac

#8570
b11011101 aaaac

#8580
b11011100 aaaac

#8590
b11011010 aaaac

#8600
b11011001 aaaac

#8610
b11011000 aaaac

#8620
b11010110 aaaac

#8630
b11010101 aaaac

#8640
b11010011 aaaac

#8650
b11010010 aaaac

#8660
b11010000 aaaac

#8670
b11001111 aaaac

#8680
b11001101 aaaac

#8690
b11001100 aaaac

#8700
b11001010 aaaac

#8710
b11001001 aaaac

#8720
b11001000 aaaac

#8730
b11000110 aaaac

#8740
b11000101 aaaac

#8750
b11000011 aaaac

#8760
b11000010 aaaac

#8770
b11000000 aaaac

#8780
b10111111 aaaac

#8790
b10111101 aaaac

#8800
b10111100 aaaac

#8810
b10111010 aaaac

#8820
b10111001 aaaac

#8830
b10110111 aaaac

#8840
b10110110 aaaac

#8850
b10110101 aaaac

#8860
b10110011 aaaac

#8870
b10110010 aaaac

#8880
b10110000 aaaac

#8890
b10101111 aaaac

#8900
b10101101 aaaac

#8910
b10101100 aaaac

#8920
b10101010 aaaac

#8930
b10101001 aaaac

#8940
b10100111 aaaac

#8950
b10100110 aaaac

#8960
b10100101 aaaac

#8970
b10100011 aaaac

#8980
b10100010 aaaac

#8990
b10100000 aaaac

#9000
1aaaaa
b10011111 aaaac

#9010
b10011101 aaaac

#9020
b10011100 aaaac

#9030
b10011010 aaaac

#9040
b10011001 aaaac

#9050
b10011000 aaaac

#9060
b10010110 aaaac

#9070
b10010101 aaaac

#9080
b10010011 aaaac

#9090
b10010010 aaaac

#9100
b10010000 aaaac

#9110
b10001111 aaaac

#9120
b10001101 aaaac

#9130
b10001100 aaaac

#9140
b10001010 aaaac

#9150
b10001001 aaaac

#9160
b10001000 aaaac

#9170
b10000110 aaaac

#9180
b10000101 aaaac

#9190
b10000011 aaaac

#9200
b10000010 aaaac

#9210
b10000000 aaaac

#9220
b1111111 aaaac

#9230
b1111110 aaaac

#9240
b1111100 aaaac

#9250
b1111011 aaaac

#9260
b1111001 aaaac

#9270
b1111000 aaaac

#9280
b1110110 aaaac

#9290
b1110101 aaaac

#9300
b1110011 aaaac

#9310
b1110010 aaaac

#9320
b1110001 aaaac

#9330
b1101111 aaaac

#9340
b1101110 aaaac

#9350
b1101100 aaaac

#9360
b1101011 aaaac

#9370
b1101001 aaaac

#9380
b1101000 aaaac

#9390
b1100111 aaaac

#9400
b1100101 aaaac

#9410
b1100100 aaaac

#9420
b1100010 aaaac

#9430
b1100001 aaaac

#9440
b1011111 aaaac

#9450
b1011110 aaaac

#9460
b1011100 aaaac

#9470
b1011011 aaaac

#9480
b1011010 aaaac

#9490
b1011000 aaaac

#9500
0aaaaa
b1010111 aaaac

#9510
b1010101 aaaac

#9520
b1010100 aaaac

#9530
b1010010 aaaac

#9540
b1010001 aaaac

#9550
b1010000 aaaac

#9560
b1001110 aaaac

#9570
b1001101 aaaac

#9580
b1001011 aaaac

#9590
b1001010 aaaac

#9600
b1001001 aaaac

#9610
b1000111 aaaac

#9620
b1000110 aaaac

#9630
b1000100 aaaac

#9640
b1000011 aaaac

#9650
b1000001 aaaac

#9660
b1000000 aaaac

#9670
b111111 aaaac

#9680
b111101 aaaac

#9690
b111100 aaaac

#9700
b111010 aaaac

#9710
b111001 aaaac

#9720
b111000 aaaac

#9730
b110110 aaaac

#9740
b110101 aaaac

#9750
b110011 aaaac

#9760
b110010 aaaac

#9770
b110000 aaaac

#9780
b101111 aaaac

#9790
b101110 aaaac

#9800
b101100 aaaac

#9810
b101011 aaaac

#9820
b101001 aaaac

#9830
b101000 aaaac

#9840
b100111 aaaac

#9850
b100101 aaaac

#9860
b100100 aaaac

#9870
b100010 aaaac

#9880
b100001 aaaac

#9890
b100000 aaaac

#9900
b11110 aaaac

#9910
b11101 aaaac

#9920
b11011 aaaac

#9930
b11010 aaaac

#9940
b11001 aaaac

#9950
b10111 aaaac

#9960
b10110 aaaac

#9970
b10100 aaaac

#9980
b10011 aaaac

#9990
b10010 aaaac

#10000
1aaaaa
b10000 aaaac

#10010
b1111 aaaac

#10020
b1101 aaaac

#10030
b1100 aaaac

#10040
b1011 aaaac

#10050
b1001 aaaac

#10060
b1000 aaaac

#10070
b111 aaaac

#10080
b101 aaaac

#10090
b100 aaaac

#10100
b10 aaaac

#10110
b1 aaaac

#10120
b0 aaaac

#10130
b1111111110 aaaac

#10140
b1111111101 aaaac

#10150
b1111111100 aaaac

#10160
b1111111010 aaaac

#10170
b1111111001 aaaac

#10180
b1111110111 aaaac

#10190
b1111110110 aaaac

#10200
b1111110101 aaaac

#10210
b1111110011 aaaac

#10220
b1111110010 aaaac

#10230
b1111110001 aaaac

#10240
b1111101111 aaaac

#10250
b1111101110 aaaac

#10260
b1111101100 aaaac

#10270
b1111101011 aaaac

#10280
b1111101010 aaaac

#10290
b1111101000 aaaac

#10300
b1111100111 aaaac

#10310
b1111100110 aaaac

#10320
b1111100100 aaaac

#10330
b1111100011 aaaac

#10340
b1111100010 aaaac

#10350
b1111100000 aaaac

#10360
b1111011111 aaaac

#10370
b1111011101 aaaac

#10380
b1111011100 aaaac

#10390
b1111011011 aaaac

#10400
b1111011001 aaaac

#10410
b1111011000 aaaac

#10420
b1111010111 aaaac

#10430
b1111010101 aaaac

#10440
b1111010100 aaaac

#10450
b1111010011 aaaac

#10460
b1111010001 aaaac

#10470
b1111010000 aaaac

#10480
b1111001111 aaaac

#10490
b1111001101 aaaac

#10500
0aaaaa
b1111001100 aaaac

#10510
b1111001011 aaaac

#10520
b1111001001 aaaac

#10530
b1111001000 aaaac

#10540
b1111000111 aaaac

#10550
b1111000101 aaaac

#10560
b1111000100 aaaac

#10570
b1111000011 aaaac

#10580
b1111000001 aaaac

#10590
b1111000000 aaaac

#10600
b1110111111 aaaac

#10610
b1110111101 aaaac

#10620
b1110111100 aaaac

#10630
b1110111011 aaaac

#10640
b1110111001 aaaac

#10650
b1110111000 aaaac

#10660
b1110110111 aaaac

#10670
b1110110101 aaaac

#10680
b1110110100 aaaac

#10690
b1110110011 aaaac

#10700
b1110110001 aaaac

#10710
b1110110000 aaaac

#10720
b1110101111 aaaac

#10730
b1110101101 aaaac

#10740
b1110101100 aaaac

#10750
b1110101011 aaaac

#10760
b1110101001 aaaac

#10770
b1110101000 aaaac

#10780
b1110100111 aaaac

#10790
b1110100101 aaaac

#10800
b1110100100 aaaac

#10810
b1110100011 aaaac

#10820
b1110100010 aaaac

#10830
b1110100000 aaaac

#10840
b1110011111 aaaac

#10850
b1110011110 aaaac

#10860
b1110011100 aaaac

#10870
b1110011011 aaaac

#10880
b1110011010 aaaac

#10890
b1110011000 aaaac

#10900
b1110010111 aaaac

#10910
b1110010110 aaaac

#10920
b1110010101 aaaac

#10930
b1110010011 aaaac

#10940
b1110010010 aaaac

#10950
b1110010001 aaaac

#10960
b1110001111 aaaac

#10970
b1110001110 aaaac

#10980
b1110001101 aaaac

#10990
b1110001100 aaaac

#11000
1aaaaa
b1110001010 aaaac

#11010
b1110001001 aaaac

#11020
b1110001000 aaaac

#11030
b1110000110 aaaac

#11040
b1110000101 aaaac

#11050
b1110000100 aaaac

#11060
b1110000011 aaaac

#11070
b1110000001 aaaac

#11080
b1110000000 aaaac

#11090
b1101111111 aaaac

#11100
b1101111110 aaaac

#11110
b1101111100 aaaac

#11120
b1101111011 aaaac

#11130
b1101111010 aaaac

#11140
b1101111000 aaaac

#11150
b1101110111 aaaac

#11160
b1101110110 aaaac

#11170
b1101110101 aaaac

#11180
b1101110011 aaaac

#11190
b1101110010 aaaac

#11200
b1101110001 aaaac

#11210
b1101110000 aaaac

#11220
b1101101110 aaaac

#11230
b1101101101 aaaac

#11240
b1101101100 aaaac

#11250
b1101101011 aaaac

#11260
b1101101001 aaaac

#11270
b1101101000 aaaac

#11280
b1101100111 aaaac

#11290
b1101100110 aaaac

#11300
b1101100100 aaaac

#11310
b1101100011 aaaac

#11320
b1101100010 aaaac

#11330
b1101100001 aaaac

#11340
b1101100000 aaaac

#11350
b1101011110 aaaac

#11360
b1101011101 aaaac

#11370
b1101011100 aaaac

#11380
b1101011011 aaaac

#11390
b1101011001 aaaac

#11400
b1101011000 aaaac

#11410
b1101010111 aaaac

#11420
b1101010110 aaaac

#11430
b1101010100 aaaac

#11440
b1101010011 aaaac

#11450
b1101010010 aaaac

#11460
b1101010001 aaaac

#11470
b1101010000 aaaac

#11480
b1101001110 aaaac

#11490
b1101001101 aaaac

#11500
0aaaaa
b1101001100 aaaac

#11510
b1101001011 aaaac

#11520
b1101001010 aaaac

#11530
b1101001000 aaaac

#11540
b1101000111 aaaac

#11550
b1101000110 aaaac

#11560
b1101000101 aaaac

#11570
b1101000100 aaaac

#11580
b1101000010 aaaac

#11590
b1101000001 aaaac

#11600
b1101000000 aaaac

#11610
b1100111111 aaaac

#11620
b1100111110 aaaac

#11630
b1100111100 aaaac

#11640
b1100111011 aaaac

#11650
b1100111010 aaaac

#11660
b1100111001 aaaac

#11670
b1100111000 aaaac

#11680
b1100110110 aaaac

#11690
b1100110101 aaaac

#11700
b1100110100 aaaac

#11710
b1100110011 aaaac

#11720
b1100110010 aaaac

#11730
b1100110001 aaaac

#11740
b1100101111 aaaac

#11750
b1100101110 aaaac

#11760
b1100101101 aaaac

#11770
b1100101100 aaaac

#11780
b1100101011 aaaac

#11790
b1100101010 aaaac

#11800
b1100101000 aaaac

#11810
b1100100111 aaaac

#11820
b1100100110 aaaac

#11830
b1100100101 aaaac

#11840
b1100100100 aaaac

#11850
b1100100011 aaaac

#11860
b1100100001 aaaac

#11870
b1100100000 aaaac

#11880
b1100011111 aaaac

#11890
b1100011110 aaaac

#11900
b1100011101 aaaac

#11910
b1100011100 aaaac

#11920
b1100011011 aaaac

#11930
b1100011001 aaaac

#11940
b1100011000 aaaac

#11950
b1100010111 aaaac

#11960
b1100010110 aaaac

#11970
b1100010101 aaaac

#11980
b1100010100 aaaac

#11990
b1100010011 aaaac

#12000
1aaaaa
b1100010010 aaaac

#12010
b1100010000 aaaac

#12020
b1100001111 aaaac

#12030
b1100001110 aaaac

#12040
b1100001101 aaaac

#12050
b1100001100 aaaac

#12060
b1100001011 aaaac

#12070
b1100001010 aaaac

#12080
b1100001001 aaaac

#12090
b1100000111 aaaac

#12100
b1100000110 aaaac

#12110
b1100000101 aaaac

#12120
b1100000100 aaaac

#12130
b1100000011 aaaac

#12140
b1100000010 aaaac

