ALU/Debug/ALU16.vcd
$date
     Sep 11, 2015       15:09:16
$end

$version
 SystemC 2.3.1-Accellera --- Jun 22 2015 14:07:54
$end

$timescale
     1 ns
$end

$scope module SystemC $end
$var wire    1  aaaaa  clk       $end
$var wire    3  aaaab  op_sel [2:0]  $end
$var wire    1  aaaac  reset       $end
$var wire   16  aaaad  data1 [15:0]  $end
$var wire   16  aaaae  data2 [15:0]  $end
$var wire   16  aaaaf  acc [15:0]  $end
$var wire    8  aaaag  stat [7:0]  $end
$upscope $end
$enddefinitions  $end

$comment
All initial values are dumped below at time 0 sec = 0 timescale units.
$end

$dumpvars
0aaaaa
b0 aaaab
1aaaac
b10111011100 aaaad
b100000110100 aaaae
b0 aaaaf
b0 aaaag
$end

#1
1aaaaa
b10100 aaaaf

#2
0aaaaa
b101 aaaab

#3
1aaaaa
b111000010000 aaaaf

#4
0aaaaa
b100000000000000 aaaad
b100000000000000 aaaae

#5
1aaaaa
b1000000000000000 aaaaf
b100 aaaag

#6
0aaaaa

#7
1aaaaa
b10100 aaaag

#8
0aaaaa
b1011100000000000 aaaad
b1000100000000000 aaaae

#9
1aaaaa
b100000000000000 aaaaf
b0 aaaag

#10
0aaaaa

#11
1aaaaa
b1000 aaaag

#12
0aaaaa
b1110000000000000 aaaad
b1110000000000000 aaaae

#13
1aaaaa
b1100000000000000 aaaaf
b1110 aaaag

#14
0aaaaa

#15
1aaaaa
b110 aaaag

#16
0aaaaa
b1100000000000000 aaaad
b110000000000000 aaaae

#17
1aaaaa
b10000000000000 aaaaf
b10 aaaag

#18
0aaaaa

#19
1aaaaa

#20
0aaaaa
b110000000000000 aaaad
b1100000000000001 aaaae

#21
1aaaaa
b10000000000001 aaaaf

#22
0aaaaa

#23
1aaaaa

#24
0aaaaa
b10 aaaad
b11 aaaae

#25
1aaaaa
b101 aaaaf
b0 aaaag

#26
0aaaaa
b110 aaaab

#27
1aaaaa
b110 aaaaf

#28
0aaaaa
b1100000000000000 aaaad
b1111111111111110 aaaae

#29
1aaaaa
b1000000000000000 aaaaf
b110 aaaag

#30
0aaaaa

#31
1aaaaa
b10110 aaaag

#32
0aaaaa
b11 aaaae

#33
1aaaaa
b100000000000000 aaaaf
b10 aaaag

#34
0aaaaa

#35
1aaaaa
b1010 aaaag

#36
0aaaaa
b1000000000 aaaad
b1111111111111000 aaaae

#37
1aaaaa
b1111000000000000 aaaaf
b1100 aaaag

#38
0aaaaa
b111 aaaab

#39
1aaaaa
b1111111111000000 aaaaf
b100 aaaag

#40
0aaaaa
b10000000000 aaaad
b100 aaaae

#41
1aaaaa
b100000000 aaaaf
b0 aaaag

#42
0aaaaa

#43
1aaaaa

#44
0aaaaa
b0 aaaae

#45
1aaaaa
b1000 aaaag

#46
0aaaaa

#47
1aaaaa

#48
0aaaaa
b100 aaaab
b100000000000000 aaaad

#49
1aaaaa
b1000000000000000 aaaad
b0 aaaag

#50
0aaaaa
b1100000000000000 aaaad

#51
1aaaaa
b1000000000000001 aaaad
b110 aaaag

#52
0aaaaa
b11 aaaab
b10 aaaad

#53
1aaaaa
b1 aaaad
b0 aaaag

#54
0aaaaa
b11 aaaad

#55
1aaaaa
b1000000000000001 aaaad
b10 aaaag

#56
0aaaaa
b1010101010101001 aaaad
b101010101010101 aaaae

#57
1aaaaa
b1101010101010100 aaaad
b110 aaaag

#58
0aaaaa
b0 aaaab

#59
1aaaaa
b101010101010100 aaaaf
b0 aaaag

#60
0aaaaa
b1010101010101001 aaaad

#61
1aaaaa
b1 aaaaf

#62
0aaaaa
b1 aaaab

#63
1aaaaa
b1111111111111101 aaaaf
b100 aaaag

#64
0aaaaa

#65
1aaaaa

#66
0aaaaa
b10 aaaab

#67
1aaaaa
b1111111111111100 aaaaf

#68
0aaaaa
0aaaac

#69
1aaaaa
b0 aaaad
b0 aaaae
b0 aaaaf
b0 aaaag

#70
0aaaaa
1aaaac

